[
    {"label": "Ejecutarias VInculantes", "icon": "balance_scale", "url": "/get_normacontenido/36/"}, 
    {"label": "Acuerdos plenarios", "icon": "doc_text", "url": "/get_normacontenido/36/"}, 
    {"label": "Procesos constitucionales", "icon": "doc_text_inv", "url": "/get_normacontenido/36/"}, 
    {"label": "Jurisprudencia Relevante", "icon": "gavel", "url": "/get_normacontenido/36/"}, 
    {"label": "Jurisprudencia Ambiental", "icon": "account_balance", "url": "/get_normacontenido/36/"}, 
    {"label": "Jurisprudencia Penal", "icon": "hammer", "url": "/get_normacontenido/36/"}, 
    {"label": "Justicia laboral", "icon": "edit", "url": "/get_normacontenido/36/"}, 
    {"label": "Justicia de género", "icon": "slideshare", "url": "/get_normacontenido/36/"}, 
    {"label": "Derechos Humano", "icon": "handshake", "url": "/get_normacontenido/36/"}
]